%YAML 1.1
%TAG !u! tag:unity3d.com,2011:
--- !u!21 &2100000
Material:
  serializedVersion: 6
  m_ObjectHideFlags: 0
  m_PrefabParentObject: {fileID: 0}
  m_PrefabInternal: {fileID: 0}
  m_Name: Roof01
  m_Shader: {fileID: 7, guid: 0000000000000000f000000000000000, type: 0}
  m_ShaderKeywords: 
  m_LightmapFlags: 5
  m_CustomRenderQueue: -1
  stringTagMap: {}
  m_SavedProperties:
    serializedVersion: 2
    m_TexEnvs:
      data:
        first:
          name: _MainTex
        second:
          m_Texture: {fileID: 2800000, guid: 921e4adeb3adc884f8c57c67ed5c7b1f, type: 3}
          m_Scale: {x: 1, y: 1}
          m_Offset: {x: 1, y: 0.000000021855696}
    m_Floats: {}
    m_Colors:
      data:
        first:
          name: _Color
        second: {r: 0.9104478, g: 0.9104478, b: 0.9104478, a: 1}
